# This file uses centimeters as units for non-parametric coordinates.

mtllib doorLIGHT.mtl
g default
v -2.000000 0.000000 1.500000
v 2.000000 0.000000 1.500000
v -2.000000 0.000000 -1.500000
v 2.000000 0.000000 -1.500000
vt -0.000000 0.571429
vt 0.571429 -0.000000
vt 1.000000 0.428571
vt 0.428571 1.000000
vn 0.000000 1.000000 0.000000
vn 0.000000 1.000000 0.000000
vn 0.000000 1.000000 0.000000
vn 0.000000 1.000000 0.000000
s off
g pPlane4
usemtl lambert5SG
f 1/1/1 2/2/2 4/3/3 3/4/4
